Lab 6 - Spicy
…
}

Testing Your Function!

## Testing how your function handles multiple input variables
remove_outliers(diamonds, 
                price, 
                x, 
                y, 
                z)

Warning: Using one column matrices in `filter()` was deprecated in dplyr 1.1.0.
ℹ Please use one dimensional logical vectors instead.

# A tibble: 20,978 × 10
   carat cut       color clarity depth table price     x     y     z
   <dbl> <ord>     <ord> <ord>   <dbl> <dbl> <int> <dbl> <dbl> <dbl>
 1  0.23 Ideal     E     SI2      61.5    55   326  3.95  3.98  2.43
 2  0.21 Premium   E     SI1      59.8    61   326  3.89  3.84  2.31
 3  0.23 Very Good H     VS1      59.4    61   338  4     4.05  2.39
 4  0.3  Good      J     SI1      64      55   339  4.25  4.28  2.73
 5  0.23 Ideal     J     VS1      62.8    56   340  3.93  3.9   2.46
 6  0.22 Premium   F     SI1      60.4    61   342  3.88  3.84  2.33
 7  0.31 Ideal     J     SI2      62.2    54   344  4.35  4.37  2.71
 8  0.2  Premium   E     SI2      60.2    62   345  3.79  3.75  2.27
 9  0.32 Premium   E     I1       60.9    58   345  4.38  4.42  2.68
10  0.3  Ideal     I     SI2      62      54   348  4.31  4.34  2.68
# ℹ 20,968 more rows
…
Error in remove_outliers(diamonds, price, color): The following columns are not numeric: color

## Testing how your function handles a non-default sd_thresh
remove_outliers(diamonds, 
                price,
                x, 
                y, 
                z, 
                sd_thresh = 2)

# A tibble: 11,025 × 10
   carat cut       color clarity depth table price     x     y     z
   <dbl> <ord>     <ord> <ord>   <dbl> <dbl> <int> <dbl> <dbl> <dbl>
 1  0.23 Ideal     E     SI2      61.5    55   326  3.95  3.98  2.43
 2  0.23 Very Good H     VS1      59.4    61   338  4     4.05  2.39
 3  0.3  Good      J     SI1      64      55   339  4.25  4.28  2.73
 4  0.23 Ideal     J     VS1      62.8    56   340  3.93  3.9   2.46
 5  0.22 Premium   F     SI1      60.4    61   342  3.88  3.84  2.33
 6  0.31 Ideal     J     SI2      62.2    54   344  4.35  4.37  2.71
 7  0.2  Premium   E     SI2      60.2    62   345  3.79  3.75  2.27
 8  0.32 Premium   E     I1       60.9    58   345  4.38  4.42  2.68
 9  0.3  Ideal     I     SI2      62      54   348  4.31  4.34  2.68
10  0.3  Good      J     SI1      63.4    54   351  4.23  4.29  2.7 
# ℹ 11,015 more rows
…
  #final output
  merged_df
  
}

Testing Your Function!

## Testing how your function handles multiple input variables
impute_missing(nycflights13::flights, 
               arr_delay, 
               dep_delay) 

# A tibble: 336,776 × 19
    year month   day dep_time sched_dep_time dep_delay arr_time sched_arr_time
   <int> <int> <int>    <int>          <int>     <dbl>    <int>          <int>
 1  2013     1     1      517            515         2      830            819
 2  2013     1     1      533            529         4      850            830
 3  2013     1     1      542            540         2      923            850
 4  2013     1     1      544            545        -1     1004           1022
 5  2013     1     1      554            600        -6      812            837
 6  2013     1     1      554            558        -4      740            728
 7  2013     1     1      555            600        -5      913            854
 8  2013     1     1      557            600        -3      709            723
 9  2013     1     1      557            600        -3      838            846
10  2013     1     1      558            600        -2      753            745
# ℹ 336,766 more rows
# ℹ 11 more variables: arr_delay <dbl>, carrier <chr>, flight <int>,
#   tailnum <chr>, origin <chr>, dest <chr>, air_time <dbl>, distance <dbl>,
#   hour <dbl>, minute <dbl>, time_hour <dttm>

## Testing how your function handles an input that isn't numeric
impute_missing(nycflights13::flights, 
               arr_delay, 
               carrier)

Error in impute_missing(nycflights13::flights, arr_delay, carrier): The following columns are not numeric: carrier

## Testing how your function handles a non-default impute_fun
impute_missing(nycflights13::flights, 
               arr_delay, 
               dep_delay, 
               impute_fun = median)

# A tibble: 336,776 × 19
    year month   day dep_time sched_dep_time dep_delay arr_time sched_arr_time
   <int> <int> <int>    <int>          <int>     <dbl>    <int>          <int>
 1  2013     1     1      517            515         2      830            819
 2  2013     1     1      533            529         4      850            830
 3  2013     1     1      542            540         2      923            850
 4  2013     1     1      544            545        -1     1004           1022
 5  2013     1     1      554            600        -6      812            837
 6  2013     1     1      554            558        -4      740            728
 7  2013     1     1      555            600        -5      913            854
 8  2013     1     1      557            600        -3      709            723
 9  2013     1     1      557            600        -3      838            846
10  2013     1     1      558            600        -2      753            745
# ℹ 336,766 more rows
# ℹ 11 more variables: arr_delay <dbl>, carrier <chr>, flight <int>,
#   tailnum <chr>, origin <chr>, dest <chr>, air_time <dbl>, distance <dbl>,
#   hour <dbl>, minute <dbl>, time_hour <dttm>
…
